<?xml version="1.0" standalone="no"?>
<!DOCTYPE svg PUBLIC "-//W3C//DTD SVG 20010904//EN"
 "http://www.w3.org/TR/2001/REC-SVG-20010904/DTD/svg10.dtd">
<svg version="1.0" xmlns="http://www.w3.org/2000/svg"
 width="700.000000pt" height="700.000000pt" viewBox="0 0 700.000000 700.000000"
 preserveAspectRatio="xMidYMid meet">
<metadata>
Created by potrace 1.11, written by Peter Selinger 2001-2013
</metadata>
<g transform="translate(0.000000,700.000000) scale(0.100000,-0.100000)"
fill="#000000" stroke="none">
<path d="M3127 5832 c-16 -3 -17 -160 -17 -2333 l0 -2329 23 -1 c70 -3 734 -4
745 -1 9 3 12 479 12 2333 0 1281 -3 2329 -7 2330 -25 3 -742 3 -756 1z"/>
<path d="M4279 5815 c-4 -105 0 -747 5 -753 4 -3 211 -7 459 -8 452 -1 478 -2
616 -30 217 -45 399 -152 451 -267 26 -55 25 -130 0 -182 -70 -145 -328 -267
-615 -291 -44 -3 -268 -6 -497 -7 -376 0 -418 -2 -419 -16 -1 -20 -1 -707 0
-739 l1 -24 493 5 c270 2 510 7 532 10 22 4 56 10 75 13 19 3 46 8 60 10 22 4
62 12 95 20 287 67 579 225 765 413 140 142 258 343 286 486 2 11 8 43 13 70
16 81 6 279 -18 370 -90 336 -389 639 -791 800 -83 33 -170 62 -209 70 -9 2
-34 8 -56 14 -94 25 -264 48 -379 51 -50 1 -265 3 -479 4 -380 1 -387 1 -388
-19z"/>
<path d="M1552 3494 l-1162 -2324 73 -1 c243 -2 700 1 704 5 3 3 354 702 780
1553 l775 1548 1 768 c0 422 -2 769 -4 772 -3 2 -528 -1042 -1167 -2321z"/>
<path d="M4279 1925 c-3 -101 0 -745 4 -751 4 -7 2271 -11 2320 -5 4 1 6 175
5 388 l-3 388 -1162 0 c-1157 0 -1163 0 -1164 -20z"/>
</g>
</svg>
